{
    "title": "Make Broken MacBook Pro somewhat usable",
    "rules": [
        {
            "description": "Fix broken keys: u, 7, quote, & semi-colon",
            "manipulators": [
                {
                    "from": {
                        "key_code": "y",
                        "modifiers": {
                            "mandatory": [
                                "fn"
                            ],
                            "optional": [
                                "any"
                            ]
                        }
                    },
                    "to": [
                        {
                            "key_code": "u"
                        }
                    ],
                    "type": "basic"
                },
                {
                    "from": {
                        "key_code": "i",
                        "modifiers": {
                            "mandatory": [
                                "fn"
                            ],
                            "optional": [
                                "any"
                            ]
                        }
                    },
                    "to": [
                        {
                            "key_code": "u"
                        }
                    ],
                    "type": "basic"
                },
                {
                    "from": {
                        "key_code": "k",
                        "modifiers": {
                            "mandatory": [
                                "fn"
                            ],
                            "optional": [
                                "any"
                            ]
                        }
                    },
                    "to": [
                        {
                            "key_code": "quote"
                        }
                    ],
                    "type": "basic"
                },
                {
                    "from": {
                        "key_code": "l",
                        "modifiers": {
                            "mandatory": [
                                "fn"
                            ],
                            "optional": [
                                "any"
                            ]
                        }
                    },
                    "to": [
                        {
                            "key_code": "semicolon"
                        }
                    ],
                    "type": "basic"
                },
                {
                    "from": {
                        "key_code": "6",
                        "modifiers": {
                            "mandatory": [
                                "fn"
                            ],
                            "optional": [
                                "any"
                            ]
                        }
                    },
                    "to": [
                        {
                            "key_code": "7"
                        }
                    ],
                    "type": "basic"
                },
                {
                    "from": {
                        "key_code": "8",
                        "modifiers": {
                            "mandatory": [
                                "fn"
                            ],
                            "optional": [
                                "any"
                            ]
                        }
                    },
                    "to": [
                        {
                            "key_code": "7"
                        }
                    ],
                    "type": "basic"
                }
            ]
        }
    ]
}
